…
    model = map(data, ~ glm(
      solved ~ victim_age + victim_sex + victim_race,
      data = .x,
      family = binomial(link = "logit")
    )),
    res = map(model, ~ tidy(.x, exponentiate = TRUE, conf.int = TRUE))
  ) %>%
  unnest(res) %>%
  filter(term == "victim_sexMale") %>%
  select(city_state, estimate, conf.low, conf.high) %>%
  mutate(city_state = as.character(city_state)) # make sure it's as character
city_OR
```

    ## # A tibble: 47 × 4
    ## # Groups:   city_state [47]
    ##    city_state      estimate conf.low conf.high
    ##    <chr>              <dbl>    <dbl>     <dbl>
    ##  1 Albuquerque, NM    1.77     0.825     3.76 
    ##  2 Atlanta, GA        1.00     0.680     1.46 
    ##  3 Baltimore, MD      0.426    0.324     0.558
    ##  4 Baton Rouge, LA    0.381    0.204     0.684
    ##  5 Birmingham, AL     0.870    0.571     1.31 
    ##  6 Boston, MA         0.674    0.353     1.28 
    ##  7 Buffalo, NY        0.521    0.288     0.936
    ##  8 Charlotte, NC      0.884    0.551     1.39 
    ##  9 Chicago, IL        0.410    0.336     0.501
    ## 10 Cincinnati, OH     0.400    0.231     0.667
    ## # ℹ 37 more rows
…
boot_results
```

    ## # A tibble: 5,000 × 2
    ##       r2 beta_ratio
    ##    <dbl>      <dbl>
    ##  1 0.941      -205.
    ##  2 0.937      -229.
    ##  3 0.945      -164.
    ##  4 0.942      -167.
    ##  5 0.943      -178.
    ##  6 0.942      -159.
    ##  7 0.939      -176.
    ##  8 0.939      -227.
    ##  9 0.938      -162.
    ## 10 0.935      -201.
    ## # ℹ 4,990 more rows
…
